<?xml version="1.0" encoding="UTF-8" standalone="no"?>
<graphml xmlns="http://graphml.graphdrawing.org/xmlns" xmlns:xsi="http://www.w3.org/2001/XMLSchema-instance" xmlns:y="http://www.yworks.com/xml/graphml" xmlns:yed="http://www.yworks.com/xml/yed/3" xsi:schemaLocation="http://graphml.graphdrawing.org/xmlns http://www.yworks.com/xml/schema/graphml/1.1/ygraphml.xsd">
  <!--Created by yEd 3.12.2-->
  <key for="graphml" id="d0" yfiles.type="resources"/>
  <key for="port" id="d1" yfiles.type="portgraphics"/>
  <key for="port" id="d2" yfiles.type="portgeometry"/>
  <key for="port" id="d3" yfiles.type="portuserdata"/>
  <key attr.name="url" attr.type="string" for="node" id="d4"/>
  <key attr.name="description" attr.type="string" for="node" id="d5"/>
  <key for="node" id="d6" yfiles.type="nodegraphics"/>
  <key attr.name="Description" attr.type="string" for="graph" id="d7"/>
  <key attr.name="url" attr.type="string" for="edge" id="d8"/>
  <key attr.name="description" attr.type="string" for="edge" id="d9"/>
  <key for="edge" id="d10" yfiles.type="edgegraphics"/>
  <graph edgedefault="directed" id="G">
    <data key="d7"/>
    <node id="n0" yfiles.foldertype="group">
      <data key="d5"/>
      <data key="d6">
        <y:TableNode configuration="YED_TABLE_NODE">
          <y:Geometry height="465.24999999999983" width="869.9999999999998" x="120.39000000000226" y="-25.97000000000037"/>
          <y:Fill color="#ECF5FF" color2="#0042F440" transparent="false"/>
          <y:BorderStyle color="#000000" type="line" width="1.0"/>
          <y:NodeLabel alignment="center" autoSizePolicy="content" fontFamily="Dialog" fontSize="15" fontStyle="plain" hasBackgroundColor="false" hasLineColor="false" height="21.666015625" modelName="internal" modelPosition="t" textColor="#000000" visible="true" width="98.248046875" x="385.8759765624999" y="4.0">Test Harness</y:NodeLabel>
          <y:NodeLabel alignment="center" autoSizePolicy="content" fontFamily="Dialog" fontSize="12" fontStyle="plain" hasBackgroundColor="false" hasLineColor="false" height="18.1328125" modelName="custom" textColor="#000000" visible="true" width="84.279296875" x="62.8603515625" y="33.0">Requirements<y:LabelModel>
              <y:ColumnNodeLabelModel offset="3.0"/>
            </y:LabelModel>
            <y:ModelParameter>
              <y:ColumnNodeLabelModelParameter id="column_0" inside="true" verticalPosition="0.0"/>
            </y:ModelParameter>
          </y:NodeLabel>
          <y:NodeLabel alignment="center" autoSizePolicy="content" fontFamily="Dialog" fontSize="12" fontStyle="plain" hasBackgroundColor="false" hasLineColor="false" height="18.1328125" modelName="custom" textColor="#000000" visible="true" width="47.27734375" x="411.9863281249999" y="33.0">Testing<y:LabelModel>
              <y:ColumnNodeLabelModel offset="3.0"/>
            </y:LabelModel>
            <y:ModelParameter>
              <y:ColumnNodeLabelModelParameter id="column_1" inside="true" verticalPosition="0.0"/>
            </y:ModelParameter>
          </y:NodeLabel>
          <y:NodeLabel alignment="center" autoSizePolicy="content" fontFamily="Dialog" fontSize="12" fontStyle="plain" hasBackgroundColor="false" hasLineColor="false" height="18.1328125" modelName="custom" textColor="#000000" visible="true" width="108.642578125" x="711.3037109374998" y="33.0">System under test<y:LabelModel>
              <y:ColumnNodeLabelModel offset="3.0"/>
            </y:LabelModel>
            <y:ModelParameter>
              <y:ColumnNodeLabelModelParameter id="column_2" inside="true" verticalPosition="0.0"/>
            </y:ModelParameter>
          </y:NodeLabel>
          <y:StyleProperties>
            <y:Property class="java.awt.Color" name="yed.table.header.color.main" value="#c4d7ed"/>
            <y:Property class="java.awt.Color" name="yed.table.section.color" value="#7192b2"/>
            <y:Property class="java.lang.String" name="yed.table.lane.style" value="lane.style.columns"/>
            <y:Property class="java.awt.Color" name="yed.table.lane.color.alternating" value="#abc8e2"/>
            <y:Property class="java.awt.Color" name="yed.table.header.color.alternating" value="#abc8e2"/>
            <y:Property class="java.awt.Color" name="yed.table.lane.color.main" value="#c4d7ed"/>
            <y:Property class="java.lang.Double" name="yed.table.header.height" value="24.0"/>
          </y:StyleProperties>
          <y:State autoResize="true" closed="false" closedHeight="80.0" closedWidth="100.0"/>
          <y:Insets bottom="0" bottomF="0.0" left="0" leftF="0.0" right="0" rightF="0.0" top="0" topF="0.0"/>
          <y:BorderInsets bottom="0" bottomF="0.0" left="0" leftF="0.0" right="0" rightF="0.0" top="0" topF="0.0"/>
          <y:Table autoResizeTable="true" defaultColumnWidth="120.0" defaultMinimumColumnWidth="80.0" defaultMinimumRowHeight="50.0" defaultRowHeight="80.0">
            <y:DefaultColumnInsets bottom="0.0" left="0.0" right="0.0" top="24.0"/>
            <y:DefaultRowInsets bottom="0.0" left="0.0" right="0.0" top="0.0"/>
            <y:Insets bottom="0.0" left="0.0" right="0.0" top="30.0"/>
            <y:Columns>
              <y:Column id="column_0" minimumWidth="80.0" width="210.0">
                <y:Insets bottom="0.0" left="0.0" right="0.0" top="24.0"/>
              </y:Column>
              <y:Column id="column_1" minimumWidth="80.0" width="451.2499999999998">
                <y:Insets bottom="0.0" left="0.0" right="0.0" top="24.0"/>
              </y:Column>
              <y:Column id="column_2" minimumWidth="80.0" width="208.75">
                <y:Insets bottom="0.0" left="0.0" right="0.0" top="24.0"/>
              </y:Column>
            </y:Columns>
            <y:Rows>
              <y:Row height="411.24999999999983" id="row_0" minimumHeight="50.0">
                <y:Insets bottom="0.0" left="0.0" right="0.0" top="0.0"/>
              </y:Row>
            </y:Rows>
          </y:Table>
        </y:TableNode>
      </data>
      <graph edgedefault="directed" id="n0:"/>
    </node>
    <node id="n1">
      <data key="d5"/>
      <data key="d6">
        <y:ShapeNode>
          <y:Geometry height="96.0" width="130.66666666666686" x="830.9733333333351" y="173.0299999999995"/>
          <y:Fill color="#FFCC00" transparent="false"/>
          <y:BorderStyle color="#000000" type="line" width="1.0"/>
          <y:NodeLabel alignment="center" autoSizePolicy="content" fontFamily="Dialog" fontSize="12" fontStyle="plain" hasBackgroundColor="false" hasLineColor="false" height="18.1328125" modelName="custom" textColor="#000000" visible="true" width="79.234375" x="47.43229166666697" y="38.93359375">DuckDuckGo<y:LabelModel>
              <y:SmartNodeLabelModel distance="4.0"/>
            </y:LabelModel>
            <y:ModelParameter>
              <y:SmartNodeLabelModelParameter labelRatioX="0.5" labelRatioY="0.0" nodeRatioX="0.5" nodeRatioY="0.0" offsetX="-4.0" offsetY="0.0" upX="0.0" upY="-1.0"/>
            </y:ModelParameter>
          </y:NodeLabel>
          <y:Shape type="rectangle"/>
        </y:ShapeNode>
      </data>
    </node>
    <node id="n2">
      <data key="d5"/>
      <data key="d6">
        <y:ShapeNode>
          <y:Geometry height="96.0" width="104.0" x="173.39000000000226" y="173.0299999999995"/>
          <y:Fill color="#FFCC00" transparent="false"/>
          <y:BorderStyle color="#000000" type="line" width="1.0"/>
          <y:NodeLabel alignment="center" autoSizePolicy="content" fontFamily="Dialog" fontSize="12" fontStyle="plain" hasBackgroundColor="false" hasLineColor="false" height="18.1328125" modelName="custom" textColor="#000000" visible="true" width="49.64453125" x="27.177734375" y="38.93359375">Gherkin<y:LabelModel>
              <y:SmartNodeLabelModel distance="4.0"/>
            </y:LabelModel>
            <y:ModelParameter>
              <y:SmartNodeLabelModelParameter labelRatioX="0.0" labelRatioY="0.0" nodeRatioX="0.0" nodeRatioY="0.0" offsetX="0.0" offsetY="0.0" upX="0.0" upY="-1.0"/>
            </y:ModelParameter>
          </y:NodeLabel>
          <y:Shape type="rectangle"/>
        </y:ShapeNode>
      </data>
    </node>
    <node id="n3">
      <data key="d5"/>
      <data key="d6">
        <y:ShapeNode>
          <y:Geometry height="65.0" width="55.0" x="382.4733333333352" y="188.52999999999952"/>
          <y:Fill color="#FFCC00" transparent="false"/>
          <y:BorderStyle color="#000000" type="line" width="1.0"/>
          <y:NodeLabel alignment="center" autoSizePolicy="content" fontFamily="Dialog" fontSize="12" fontStyle="plain" hasBackgroundColor="false" hasLineColor="false" height="18.1328125" modelName="custom" textColor="#000000" visible="true" width="44.55859375" x="5.220703125" y="23.43359375">Behave<y:LabelModel>
              <y:SmartNodeLabelModel distance="4.0"/>
            </y:LabelModel>
            <y:ModelParameter>
              <y:SmartNodeLabelModelParameter labelRatioX="0.0" labelRatioY="0.0" nodeRatioX="0.0" nodeRatioY="0.0" offsetX="0.0" offsetY="0.0" upX="0.0" upY="-1.0"/>
            </y:ModelParameter>
          </y:NodeLabel>
          <y:Shape type="rectangle"/>
        </y:ShapeNode>
      </data>
    </node>
    <node id="n4">
      <data key="d5"/>
      <data key="d6">
        <y:SVGNode>
          <y:Geometry height="32.483882904052734" width="58.16804885864258" x="196.30597557068097" y="60.28805854797312"/>
          <y:Fill color="#CCCCFF" transparent="false"/>
          <y:BorderStyle color="#000000" type="line" width="1.0"/>
          <y:NodeLabel alignment="center" autoSizePolicy="content" fontFamily="Dialog" fontSize="12" fontStyle="plain" hasBackgroundColor="false" hasLineColor="false" height="18.1328125" modelName="custom" textColor="#000000" visible="true" width="100.046875" x="-20.93941307067871" y="36.483882904052734">Decision makers<y:LabelModel>
              <y:SmartNodeLabelModel distance="4.0"/>
            </y:LabelModel>
            <y:ModelParameter>
              <y:SmartNodeLabelModelParameter labelRatioX="0.0" labelRatioY="-0.5" nodeRatioX="0.0" nodeRatioY="0.5" offsetX="0.0" offsetY="4.0" upX="0.0" upY="-1.0"/>
            </y:ModelParameter>
          </y:NodeLabel>
          <y:SVGNodeProperties usingVisualBounds="false"/>
          <y:SVGModel svgBoundsPolicy="0">
            <y:SVGContent refid="1"/>
          </y:SVGModel>
        </y:SVGNode>
      </data>
    </node>
    <node id="n5">
      <data key="d5"/>
      <data key="d6">
        <y:SVGNode>
          <y:Geometry height="58.38100051879883" width="58.50005340576172" x="196.1399732971214" y="328.28805854797315"/>
          <y:Fill color="#CCCCFF" transparent="false"/>
          <y:BorderStyle color="#000000" type="line" width="1.0"/>
          <y:NodeLabel alignment="center" autoSizePolicy="content" fontFamily="Dialog" fontSize="12" fontStyle="plain" hasBackgroundColor="false" hasLineColor="false" height="18.1328125" modelName="custom" textColor="#000000" visible="true" width="82.052734375" x="-11.77634048461914" y="62.38100051879883">Programmers<y:LabelModel>
              <y:SmartNodeLabelModel distance="4.0"/>
            </y:LabelModel>
            <y:ModelParameter>
              <y:SmartNodeLabelModelParameter labelRatioX="0.0" labelRatioY="-0.5" nodeRatioX="0.0" nodeRatioY="0.5" offsetX="0.0" offsetY="4.0" upX="0.0" upY="-1.0"/>
            </y:ModelParameter>
          </y:NodeLabel>
          <y:SVGNodeProperties usingVisualBounds="false"/>
          <y:SVGModel svgBoundsPolicy="0">
            <y:SVGContent refid="2"/>
          </y:SVGModel>
        </y:SVGNode>
      </data>
    </node>
    <node id="n6">
      <data key="d5"/>
      <data key="d6">
        <y:ShapeNode>
          <y:Geometry height="48.0" width="41.0" x="830.9733333333351" y="173.0299999999995"/>
          <y:Fill color="#FFCC00" transparent="false"/>
          <y:BorderStyle color="#000000" type="line" width="1.0"/>
          <y:NodeLabel alignment="center" autoSizePolicy="content" fontFamily="Dialog" fontSize="12" fontStyle="plain" hasBackgroundColor="false" hasLineColor="false" height="18.1328125" modelName="custom" textColor="#000000" visible="true" width="34.796875" x="3.1015625" y="14.93359375">WWW<y:LabelModel>
              <y:SmartNodeLabelModel distance="4.0"/>
            </y:LabelModel>
            <y:ModelParameter>
              <y:SmartNodeLabelModelParameter labelRatioX="0.0" labelRatioY="0.0" nodeRatioX="0.0" nodeRatioY="0.0" offsetX="0.0" offsetY="0.0" upX="0.0" upY="-1.0"/>
            </y:ModelParameter>
          </y:NodeLabel>
          <y:Shape type="rectangle"/>
        </y:ShapeNode>
      </data>
    </node>
    <node id="n7">
      <data key="d5"/>
      <data key="d6">
        <y:ShapeNode>
          <y:Geometry height="48.0" width="41.0" x="830.9733333333351" y="221.0299999999995"/>
          <y:Fill color="#FFCC00" transparent="false"/>
          <y:BorderStyle color="#000000" type="line" width="1.0"/>
          <y:NodeLabel alignment="center" autoSizePolicy="content" fontFamily="Dialog" fontSize="12" fontStyle="plain" hasBackgroundColor="false" hasLineColor="false" height="18.1328125" modelName="custom" textColor="#000000" visible="true" width="32.142578125" x="4.4287109375" y="14.93359375">REST<y:LabelModel>
              <y:SmartNodeLabelModel distance="4.0"/>
            </y:LabelModel>
            <y:ModelParameter>
              <y:SmartNodeLabelModelParameter labelRatioX="0.0" labelRatioY="0.0" nodeRatioX="0.0" nodeRatioY="0.0" offsetX="0.0" offsetY="0.0" upX="0.0" upY="-1.0"/>
            </y:ModelParameter>
          </y:NodeLabel>
          <y:Shape type="rectangle"/>
        </y:ShapeNode>
      </data>
    </node>
    <node id="n8">
      <data key="d5"/>
      <data key="d6">
        <y:ShapeNode>
          <y:Geometry height="48.0" width="96.0" x="621.030000000004" y="168.02999999999952"/>
          <y:Fill color="#FFCC00" transparent="false"/>
          <y:BorderStyle color="#000000" type="line" width="1.0"/>
          <y:NodeLabel alignment="center" autoSizePolicy="content" fontFamily="Dialog" fontSize="12" fontStyle="plain" hasBackgroundColor="false" hasLineColor="false" height="32.265625" modelName="custom" textColor="#000000" visible="true" width="83.037109375" x="6.4814453125" y="7.8671875">WWW adapter
(Selenium)<y:LabelModel>
              <y:SmartNodeLabelModel distance="4.0"/>
            </y:LabelModel>
            <y:ModelParameter>
              <y:SmartNodeLabelModelParameter labelRatioX="0.0" labelRatioY="0.0" nodeRatioX="0.0" nodeRatioY="0.0" offsetX="0.0" offsetY="0.0" upX="0.0" upY="-1.0"/>
            </y:ModelParameter>
          </y:NodeLabel>
          <y:Shape type="rectangle"/>
        </y:ShapeNode>
      </data>
    </node>
    <node id="n9">
      <data key="d5"/>
      <data key="d6">
        <y:ShapeNode>
          <y:Geometry height="48.0" width="96.0" x="621.030000000004" y="228.02999999999906"/>
          <y:Fill color="#FFCC00" transparent="false"/>
          <y:BorderStyle color="#000000" type="line" width="1.0"/>
          <y:NodeLabel alignment="center" autoSizePolicy="content" fontFamily="Dialog" fontSize="12" fontStyle="plain" hasBackgroundColor="false" hasLineColor="false" height="18.1328125" modelName="custom" textColor="#000000" visible="true" width="80.3828125" x="7.80859375" y="14.93359375">REST adapter<y:LabelModel>
              <y:SmartNodeLabelModel distance="4.0"/>
            </y:LabelModel>
            <y:ModelParameter>
              <y:SmartNodeLabelModelParameter labelRatioX="0.0" labelRatioY="0.0" nodeRatioX="0.0" nodeRatioY="0.0" offsetX="0.0" offsetY="0.0" upX="0.0" upY="-1.0"/>
            </y:ModelParameter>
          </y:NodeLabel>
          <y:Shape type="rectangle"/>
        </y:ShapeNode>
      </data>
    </node>
    <node id="n10">
      <data key="d5"/>
      <data key="d6">
        <y:ShapeNode>
          <y:Geometry height="65.0" width="64.0" x="492.72333333333523" y="188.52999999999952"/>
          <y:Fill color="#FFCC00" transparent="false"/>
          <y:BorderStyle color="#000000" type="line" width="1.0"/>
          <y:NodeLabel alignment="center" autoSizePolicy="content" fontFamily="Dialog" fontSize="12" fontStyle="plain" hasBackgroundColor="false" hasLineColor="false" height="32.265625" modelName="custom" textColor="#000000" visible="true" width="45.66015625" x="9.169921874999943" y="16.3671875">Interim
SDK<y:LabelModel>
              <y:SmartNodeLabelModel distance="4.0"/>
            </y:LabelModel>
            <y:ModelParameter>
              <y:SmartNodeLabelModelParameter labelRatioX="0.0" labelRatioY="0.0" nodeRatioX="0.0" nodeRatioY="0.0" offsetX="0.0" offsetY="0.0" upX="0.0" upY="-1.0"/>
            </y:ModelParameter>
          </y:NodeLabel>
          <y:Shape type="rectangle"/>
        </y:ShapeNode>
      </data>
    </node>
    <node id="n11">
      <data key="d5"/>
      <data key="d6">
        <y:ShapeNode>
          <y:Geometry height="72.5" width="139.74999999999994" x="454.8483333333352" y="460.61333333333266"/>
          <y:Fill color="#FFCC00" transparent="false"/>
          <y:BorderStyle color="#000000" type="line" width="1.0"/>
          <y:NodeLabel alignment="center" autoSizePolicy="content" fontFamily="Dialog" fontSize="20" fontStyle="plain" hasBackgroundColor="false" hasLineColor="false" height="27.5546875" modelName="custom" textColor="#000000" visible="true" width="121.802734375" x="8.973632812499943" y="22.47265625">De facto API<y:LabelModel>
              <y:SmartNodeLabelModel distance="4.0"/>
            </y:LabelModel>
            <y:ModelParameter>
              <y:SmartNodeLabelModelParameter labelRatioX="0.0" labelRatioY="0.0" nodeRatioX="0.0" nodeRatioY="0.0" offsetX="0.0" offsetY="0.0" upX="0.0" upY="-1.0"/>
            </y:ModelParameter>
          </y:NodeLabel>
          <y:Shape type="rectangle"/>
        </y:ShapeNode>
      </data>
    </node>
    <edge id="e0" source="n2" target="n3">
      <data key="d10">
        <y:GenericEdge configuration="com.yworks.edge.framed">
          <y:Path sx="0.0" sy="0.0" tx="0.0" ty="0.0"/>
          <y:LineStyle color="#000000" type="line" width="3.0"/>
          <y:Arrows source="none" target="standard"/>
          <y:EdgeLabel alignment="center" configuration="AutoFlippingLabel" distance="2.0" fontFamily="Dialog" fontSize="12" fontStyle="plain" hasBackgroundColor="false" hasLineColor="false" hasText="false" height="4.0" modelName="custom" preferredPlacement="anywhere" ratio="0.5" textColor="#000000" visible="true" width="4.0" x="50.54165201823122" y="28.000001220702643">
            <y:LabelModel>
              <y:SmartEdgeLabelModel autoRotationEnabled="false" defaultAngle="0.0" defaultDistance="10.0"/>
            </y:LabelModel>
            <y:ModelParameter>
              <y:SmartEdgeLabelModelParameter angle="0.0" distance="30.0" distanceToCenter="true" position="right" ratio="0.5" segment="0"/>
            </y:ModelParameter>
            <y:PreferredPlacementDescriptor angle="0.0" angleOffsetOnRightSide="0" angleReference="absolute" angleRotationOnRightSide="co" distance="-1.0" frozen="true" placement="anywhere" side="anywhere" sideReference="relative_to_edge_flow"/>
          </y:EdgeLabel>
          <y:StyleProperties>
            <y:Property class="java.awt.Color" name="FramedEdgePainter.fillColor" value="#ffffff"/>
          </y:StyleProperties>
        </y:GenericEdge>
      </data>
    </edge>
    <edge id="e1" source="n9" target="n7">
      <data key="d10">
        <y:GenericEdge configuration="com.yworks.edge.framed">
          <y:Path sx="0.0" sy="0.0" tx="0.0" ty="0.0"/>
          <y:LineStyle color="#000000" type="line" width="3.0"/>
          <y:Arrows source="standard" target="standard"/>
          <y:EdgeLabel alignment="center" configuration="AutoFlippingLabel" distance="2.0" fontFamily="Dialog" fontSize="12" fontStyle="plain" hasBackgroundColor="false" hasLineColor="false" hasText="false" height="4.0" modelName="custom" preferredPlacement="anywhere" ratio="0.5" textColor="#000000" visible="true" width="4.0" x="54.97163736979451" y="25.836173217603005">
            <y:LabelModel>
              <y:SmartEdgeLabelModel autoRotationEnabled="false" defaultAngle="0.0" defaultDistance="10.0"/>
            </y:LabelModel>
            <y:ModelParameter>
              <y:SmartEdgeLabelModelParameter angle="0.0" distance="30.0" distanceToCenter="true" position="right" ratio="0.5" segment="0"/>
            </y:ModelParameter>
            <y:PreferredPlacementDescriptor angle="0.0" angleOffsetOnRightSide="0" angleReference="absolute" angleRotationOnRightSide="co" distance="-1.0" frozen="true" placement="anywhere" side="anywhere" sideReference="relative_to_edge_flow"/>
          </y:EdgeLabel>
          <y:StyleProperties>
            <y:Property class="java.awt.Color" name="FramedEdgePainter.fillColor" value="#ffffff"/>
          </y:StyleProperties>
        </y:GenericEdge>
      </data>
    </edge>
    <edge id="e2" source="n8" target="n6">
      <data key="d10">
        <y:GenericEdge configuration="com.yworks.edge.framed">
          <y:Path sx="0.0" sy="0.0" tx="0.0" ty="0.0"/>
          <y:LineStyle color="#000000" type="line" width="3.0"/>
          <y:Arrows source="standard" target="standard"/>
          <y:EdgeLabel alignment="center" configuration="AutoFlippingLabel" distance="2.0" fontFamily="Dialog" fontSize="12" fontStyle="plain" hasBackgroundColor="false" hasLineColor="false" hasText="false" height="4.0" modelName="custom" preferredPlacement="anywhere" ratio="0.5" textColor="#000000" visible="true" width="4.0" x="51.0607051141302" y="29.465437011418544">
            <y:LabelModel>
              <y:SmartEdgeLabelModel autoRotationEnabled="false" defaultAngle="0.0" defaultDistance="10.0"/>
            </y:LabelModel>
            <y:ModelParameter>
              <y:SmartEdgeLabelModelParameter angle="0.0" distance="30.0" distanceToCenter="true" position="right" ratio="0.5" segment="0"/>
            </y:ModelParameter>
            <y:PreferredPlacementDescriptor angle="0.0" angleOffsetOnRightSide="0" angleReference="absolute" angleRotationOnRightSide="co" distance="-1.0" frozen="true" placement="anywhere" side="anywhere" sideReference="relative_to_edge_flow"/>
          </y:EdgeLabel>
          <y:StyleProperties>
            <y:Property class="java.awt.Color" name="FramedEdgePainter.fillColor" value="#ffffff"/>
          </y:StyleProperties>
        </y:GenericEdge>
      </data>
    </edge>
    <edge id="e3" source="n10" target="n8">
      <data key="d10">
        <y:GenericEdge configuration="com.yworks.edge.framed">
          <y:Path sx="0.0" sy="0.0" tx="0.0" ty="0.0"/>
          <y:LineStyle color="#000000" type="line" width="3.0"/>
          <y:Arrows source="standard" target="standard"/>
          <y:EdgeLabel alignment="center" configuration="AutoFlippingLabel" distance="2.0" fontFamily="Dialog" fontSize="12" fontStyle="plain" hasBackgroundColor="false" hasLineColor="false" hasText="false" height="4.0" modelName="custom" preferredPlacement="anywhere" ratio="0.5" textColor="#000000" visible="true" width="4.0" x="36.60866751899846" y="20.840959114091106">
            <y:LabelModel>
              <y:SmartEdgeLabelModel autoRotationEnabled="false" defaultAngle="0.0" defaultDistance="10.0"/>
            </y:LabelModel>
            <y:ModelParameter>
              <y:SmartEdgeLabelModelParameter angle="0.0" distance="30.0" distanceToCenter="true" position="right" ratio="0.5" segment="0"/>
            </y:ModelParameter>
            <y:PreferredPlacementDescriptor angle="0.0" angleOffsetOnRightSide="0" angleReference="absolute" angleRotationOnRightSide="co" distance="-1.0" frozen="true" placement="anywhere" side="anywhere" sideReference="relative_to_edge_flow"/>
          </y:EdgeLabel>
          <y:StyleProperties>
            <y:Property class="java.awt.Color" name="FramedEdgePainter.fillColor" value="#ffffff"/>
          </y:StyleProperties>
        </y:GenericEdge>
      </data>
    </edge>
    <edge id="e4" source="n10" target="n9">
      <data key="d10">
        <y:GenericEdge configuration="com.yworks.edge.framed">
          <y:Path sx="0.0" sy="0.0" tx="0.0" ty="0.0"/>
          <y:LineStyle color="#000000" type="line" width="3.0"/>
          <y:Arrows source="standard" target="standard"/>
          <y:EdgeLabel alignment="center" configuration="AutoFlippingLabel" distance="2.0" fontFamily="Dialog" fontSize="12" fontStyle="plain" hasBackgroundColor="false" hasLineColor="false" hasText="false" height="4.0" modelName="custom" preferredPlacement="anywhere" ratio="0.5" textColor="#000000" visible="true" width="4.0" x="30.153339029950757" y="35.59159599858202">
            <y:LabelModel>
              <y:SmartEdgeLabelModel autoRotationEnabled="false" defaultAngle="0.0" defaultDistance="10.0"/>
            </y:LabelModel>
            <y:ModelParameter>
              <y:SmartEdgeLabelModelParameter angle="0.0" distance="30.0" distanceToCenter="true" position="right" ratio="0.5" segment="0"/>
            </y:ModelParameter>
            <y:PreferredPlacementDescriptor angle="0.0" angleOffsetOnRightSide="0" angleReference="absolute" angleRotationOnRightSide="co" distance="-1.0" frozen="true" placement="anywhere" side="anywhere" sideReference="relative_to_edge_flow"/>
          </y:EdgeLabel>
          <y:StyleProperties>
            <y:Property class="java.awt.Color" name="FramedEdgePainter.fillColor" value="#ffffff"/>
          </y:StyleProperties>
        </y:GenericEdge>
      </data>
    </edge>
    <edge id="e5" source="n5" target="n2">
      <data key="d10">
        <y:GenericEdge configuration="com.yworks.edge.framed">
          <y:Path sx="0.0" sy="0.0" tx="0.0" ty="0.0"/>
          <y:LineStyle color="#000000" type="line" width="3.0"/>
          <y:Arrows source="none" target="standard"/>
          <y:EdgeLabel alignment="center" backgroundColor="#FFFFFF" configuration="AutoFlippingLabel" distance="2.0" fontFamily="Dialog" fontSize="12" fontStyle="plain" hasLineColor="false" height="18.1328125" modelName="custom" preferredPlacement="anywhere" ratio="0.5" textColor="#000000" visible="true" width="64.005859375" x="-32.00292907714618" y="-38.670743675232416">contribute<y:LabelModel>
              <y:SmartEdgeLabelModel autoRotationEnabled="false" defaultAngle="0.0" defaultDistance="10.0"/>
            </y:LabelModel>
            <y:ModelParameter>
              <y:SmartEdgeLabelModelParameter angle="0.0" distance="30.0" distanceToCenter="true" position="center" ratio="0.5" segment="0"/>
            </y:ModelParameter>
            <y:PreferredPlacementDescriptor angle="0.0" angleOffsetOnRightSide="0" angleReference="absolute" angleRotationOnRightSide="co" distance="-1.0" frozen="true" placement="anywhere" side="anywhere" sideReference="relative_to_edge_flow"/>
          </y:EdgeLabel>
          <y:StyleProperties>
            <y:Property class="java.awt.Color" name="FramedEdgePainter.fillColor" value="#ffffff"/>
          </y:StyleProperties>
        </y:GenericEdge>
      </data>
    </edge>
    <edge id="e6" source="n4" target="n2">
      <data key="d10">
        <y:GenericEdge configuration="com.yworks.edge.framed">
          <y:Path sx="0.0" sy="0.0" tx="0.0" ty="0.0"/>
          <y:LineStyle color="#000000" type="line" width="3.0"/>
          <y:Arrows source="none" target="standard"/>
          <y:EdgeLabel alignment="center" backgroundColor="#FFFFFF" configuration="AutoFlippingLabel" distance="2.0" fontFamily="Dialog" fontSize="12" fontStyle="plain" hasLineColor="false" height="18.1328125" modelName="custom" preferredPlacement="anywhere" ratio="0.5" textColor="#000000" visible="true" width="64.005859375" x="-32.00292907714618" y="31.04126003265327">contribute<y:LabelModel>
              <y:SmartEdgeLabelModel autoRotationEnabled="false" defaultAngle="0.0" defaultDistance="10.0"/>
            </y:LabelModel>
            <y:ModelParameter>
              <y:SmartEdgeLabelModelParameter angle="0.0" distance="30.0" distanceToCenter="true" position="center" ratio="0.5" segment="0"/>
            </y:ModelParameter>
            <y:PreferredPlacementDescriptor angle="0.0" angleOffsetOnRightSide="0" angleReference="absolute" angleRotationOnRightSide="co" distance="-1.0" frozen="true" placement="anywhere" side="anywhere" sideReference="relative_to_edge_flow"/>
          </y:EdgeLabel>
          <y:StyleProperties>
            <y:Property class="java.awt.Color" name="FramedEdgePainter.fillColor" value="#ffffff"/>
          </y:StyleProperties>
        </y:GenericEdge>
      </data>
    </edge>
    <edge id="e7" source="n3" target="n10">
      <data key="d10">
        <y:GenericEdge configuration="com.yworks.edge.framed">
          <y:Path sx="0.0" sy="0.0" tx="0.0" ty="0.0"/>
          <y:LineStyle color="#000000" type="line" width="3.0"/>
          <y:Arrows source="standard" target="standard"/>
          <y:EdgeLabel alignment="center" configuration="AutoFlippingLabel" distance="2.0" fontFamily="Dialog" fontSize="12" fontStyle="plain" hasBackgroundColor="false" hasLineColor="false" hasText="false" height="4.0" modelName="custom" preferredPlacement="anywhere" ratio="0.5" textColor="#000000" visible="true" width="4.0" x="25.625005696616427" y="28.000001220702643">
            <y:LabelModel>
              <y:SmartEdgeLabelModel autoRotationEnabled="false" defaultAngle="0.0" defaultDistance="10.0"/>
            </y:LabelModel>
            <y:ModelParameter>
              <y:SmartEdgeLabelModelParameter angle="0.0" distance="30.0" distanceToCenter="true" position="right" ratio="0.5" segment="0"/>
            </y:ModelParameter>
            <y:PreferredPlacementDescriptor angle="0.0" angleOffsetOnRightSide="0" angleReference="absolute" angleRotationOnRightSide="co" distance="-1.0" frozen="true" placement="anywhere" side="anywhere" sideReference="relative_to_edge_flow"/>
          </y:EdgeLabel>
          <y:StyleProperties>
            <y:Property class="java.awt.Color" name="FramedEdgePainter.fillColor" value="#ffffff"/>
          </y:StyleProperties>
        </y:GenericEdge>
      </data>
    </edge>
    <edge id="e8" source="n10" target="n11">
      <data key="d10">
        <y:GenericEdge configuration="com.yworks.edge.framed">
          <y:Path sx="0.0" sy="0.0" tx="0.0" ty="0.0"/>
          <y:LineStyle color="#000000" type="line" width="3.0"/>
          <y:Arrows source="none" target="standard"/>
          <y:EdgeLabel alignment="center" backgroundColor="#FFFFFF" configuration="AutoFlippingLabel" distance="2.0" fontFamily="Dialog" fontSize="12" fontStyle="plain" hasLineColor="false" height="18.1328125" modelName="custom" preferredPlacement="anywhere" ratio="0.5" textColor="#000000" visible="true" width="46.369140625" x="-23.184564615883573" y="94.47526163736921">defines<y:LabelModel>
              <y:SmartEdgeLabelModel autoRotationEnabled="false" defaultAngle="0.0" defaultDistance="10.0"/>
            </y:LabelModel>
            <y:ModelParameter>
              <y:SmartEdgeLabelModelParameter angle="0.0" distance="30.0" distanceToCenter="true" position="center" ratio="0.5" segment="0"/>
            </y:ModelParameter>
            <y:PreferredPlacementDescriptor angle="0.0" angleOffsetOnRightSide="0" angleReference="absolute" angleRotationOnRightSide="co" distance="-1.0" frozen="true" placement="anywhere" side="anywhere" sideReference="relative_to_edge_flow"/>
          </y:EdgeLabel>
          <y:StyleProperties>
            <y:Property class="java.awt.Color" name="FramedEdgePainter.fillColor" value="#ffffff"/>
          </y:StyleProperties>
        </y:GenericEdge>
      </data>
    </edge>
  </graph>
  <data key="d0">
    <y:Resources>
      <y:Resource id="1">&lt;?xml version="1.0" encoding="utf-8"?&gt;
&lt;svg version="1.1" id="Ebene_1" xmlns="http://www.w3.org/2000/svg" xmlns:xlink="http://www.w3.org/1999/xlink" x="0px" y="0px"
	 width="59px" height="34px" viewBox="0 0 59 34" enable-background="new 0 0 59 34" xml:space="preserve"&gt;
&lt;g&gt;
	
		&lt;linearGradient id="neck_x5F_white_1_" gradientUnits="userSpaceOnUse" x1="13.4722" y1="-3073.124" x2="14.2016" y2="-3090.6384" gradientTransform="matrix(1 0 0 -1 0.3604 -3057.6113)"&gt;
		&lt;stop  offset="0.2711" style="stop-color:#FFAB4F"/&gt;
		&lt;stop  offset="1" style="stop-color:#FFD28F"/&gt;
	&lt;/linearGradient&gt;
	&lt;path id="neck_x5F_white_7_" fill="url(#neck_x5F_white_1_)" stroke="#FFAB4F" stroke-width="0.5" stroke-miterlimit="10" d="
		M9.639,18.898h9.094v10.115c-0.658,0.187-8.587,0.219-9.094,0.086V18.898z"/&gt;
	
		&lt;linearGradient id="SVGID_1_" gradientUnits="userSpaceOnUse" x1="12.9697" y1="-3069.5903" x2="13.5902" y2="-3084.491" gradientTransform="matrix(1 0 0 -1 0.3604 -3057.6113)"&gt;
		&lt;stop  offset="0.2711" style="stop-color:#FFAB4F"/&gt;
		&lt;stop  offset="1" style="stop-color:#FFD28F"/&gt;
	&lt;/linearGradient&gt;
	&lt;path fill="url(#SVGID_1_)" stroke="#ED9135" stroke-width="0.5" stroke-miterlimit="10" d="M24.765,25.611
		c-2.197-2.196-5.476-2.94-6.031-3.055v-3.658H9.639c0,0,0.019,3.453,0,3.436c0,0-3.437,0.499-6.154,3.216
		c-2.796,2.796-3.235,5.835-3.235,5.835c0,0.971,0.788,1.746,1.762,1.746h24.255c0.975,0,1.762-0.777,1.762-1.746
		C28.028,31.384,27.106,27.953,24.765,25.611z"/&gt;
	
		&lt;radialGradient id="face_x5F_white_1_" cx="13.5923" cy="-3070.4746" r="11.713" fx="11.3074" fy="-3071.7195" gradientTransform="matrix(1 0 0 -1 0.3604 -3057.6113)" gradientUnits="userSpaceOnUse"&gt;
		&lt;stop  offset="0" style="stop-color:#FFD28F"/&gt;
		&lt;stop  offset="1" style="stop-color:#FFAB4F"/&gt;
	&lt;/radialGradient&gt;
	&lt;path id="face_x5F_white_7_" fill="url(#face_x5F_white_1_)" stroke="#ED9135" stroke-width="0.5" stroke-miterlimit="10" d="
		M21.839,11.679c0.043,5.1-3.369,9.26-7.626,9.293c-4.25,0.033-7.731-4.074-7.774-9.173C6.398,6.7,9.81,2.54,14.062,2.506
		C18.313,2.473,21.796,6.579,21.839,11.679z"/&gt;
	
		&lt;linearGradient id="face_highlight_1_" gradientUnits="userSpaceOnUse" x1="7121.4932" y1="14261.8359" x2="7133.3081" y2="14308.5615" gradientTransform="matrix(0.275 0 0 0.2733 -1945.4338 -3893.9907)"&gt;
		&lt;stop  offset="0" style="stop-color:#FFFFFF;stop-opacity:0.24"/&gt;
		&lt;stop  offset="1" style="stop-color:#FFFFFF;stop-opacity:0.16"/&gt;
	&lt;/linearGradient&gt;
	&lt;path id="face_highlight_7_" fill="url(#face_highlight_1_)" d="M14.208,2.813C11.19,2.835,8.834,5.059,7.814,8.006
		c-0.332,0.959-0.147,2.021,0.49,2.814c1.365,1.699,2.865,3.141,4.73,4.044c1.568,0.759,3.767,1.192,5.947,0.623
		c1.137-0.296,1.994-1.229,2.188-2.383c0.094-0.547,0.146-1.145,0.141-1.776C21.271,6.622,18.364,2.78,14.208,2.813z"/&gt;
	
		&lt;path id="hair_x5F_gray_6_" fill="#CC9869" stroke="#99724F" stroke-width="0.5" stroke-linecap="round" stroke-linejoin="round" d="
		M10.139,6.625c0,0,2.661,3.625,7.5,1.875c1.363-0.281,4.527,0.518,4.527,0.518s-1.826-8.085-8.522-7.646
		c-8.943,0.69-7.615,11.467-7.615,11.467s1.384-0.342,2.518-2.401C9.034,9.553,10.139,6.625,10.139,6.625z"/&gt;
	
		&lt;radialGradient id="collar_x5F_body_1_" cx="7.2808" cy="-3086.1948" r="16.2006" gradientTransform="matrix(1 0 0 -1 0.3604 -3057.6113)" gradientUnits="userSpaceOnUse"&gt;
		&lt;stop  offset="0" style="stop-color:#B0E8FF"/&gt;
		&lt;stop  offset="1" style="stop-color:#74AEEE"/&gt;
	&lt;/radialGradient&gt;
	&lt;path id="collar_x5F_body_7_" fill="url(#collar_x5F_body_1_)" stroke="#5491CF" stroke-width="0.5" d="M0.25,31.384
		c0,0.97,0.788,1.747,1.762,1.747h24.255c0.975,0,1.762-0.779,1.762-1.747c0,0-0.922-3.431-3.264-5.771
		c-2.408-2.406-5.622-3.072-5.622-3.072c-0.886,0.827-2.806,1.4-5.031,1.4c-2.227,0-4.146-0.573-5.032-1.4
		c0,0-2.877,0.293-5.594,3.01C0.689,28.346,0.25,31.384,0.25,31.384z"/&gt;
	
		&lt;radialGradient id="collar_x5F_r_1_" cx="15.4497" cy="-3081.2578" r="4.6415" gradientTransform="matrix(1 0 0 -1 0.3604 -3057.6113)" gradientUnits="userSpaceOnUse"&gt;
		&lt;stop  offset="0" style="stop-color:#80CCFF"/&gt;
		&lt;stop  offset="1" style="stop-color:#74AEEE"/&gt;
	&lt;/radialGradient&gt;
	&lt;path id="collar_x5F_r_7_" fill="url(#collar_x5F_r_1_)" stroke="#5491CF" stroke-width="0.5" d="M19.079,20.689
		c0,0-0.287,1.186-1.506,2.222c-1.055,0.897-2.892,1.036-2.892,1.036l1.987,3.107c0,0,1.479-0.818,2.504-1.924
		c0.961-1.035,0.686-2.74,0.686-2.74L19.079,20.689z"/&gt;
	
		&lt;radialGradient id="collar_x5F_l_1_" cx="9.2686" cy="-3081.2778" r="4.6425" gradientTransform="matrix(1 0 0 -1 0.3604 -3057.6113)" gradientUnits="userSpaceOnUse"&gt;
		&lt;stop  offset="0" style="stop-color:#80CCFF"/&gt;
		&lt;stop  offset="1" style="stop-color:#74AEEE"/&gt;
	&lt;/radialGradient&gt;
	&lt;path id="collar_x5F_l_7_" fill="url(#collar_x5F_l_1_)" stroke="#5491CF" stroke-width="0.5" d="M9.315,20.711
		c0,0,0.288,1.186,1.506,2.221c1.055,0.896,2.893,1.037,2.893,1.037l-1.987,3.107c0,0-1.479-0.818-2.503-1.926
		c-0.961-1.035-0.685-2.739-0.685-2.739L9.315,20.711z"/&gt;
	
		&lt;radialGradient id="Knob2_1_" cx="13.6846" cy="-2313.0259" r="0.4838" gradientTransform="matrix(1 0 0 -1 0.2803 -2284.9199)" gradientUnits="userSpaceOnUse"&gt;
		&lt;stop  offset="0" style="stop-color:#80CCFF"/&gt;
		&lt;stop  offset="1" style="stop-color:#74AEEE"/&gt;
	&lt;/radialGradient&gt;
	&lt;circle id="Knob2_7_" fill="url(#Knob2_1_)" stroke="#5491CF" stroke-width="0.5" cx="14.129" cy="28.127" r="0.292"/&gt;
	
		&lt;radialGradient id="Knob1_1_" cx="13.7036" cy="-2316.1479" r="0.4836" gradientTransform="matrix(1 0 0 -1 0.2803 -2284.9199)" gradientUnits="userSpaceOnUse"&gt;
		&lt;stop  offset="0" style="stop-color:#80CCFF"/&gt;
		&lt;stop  offset="1" style="stop-color:#74AEEE"/&gt;
	&lt;/radialGradient&gt;
	&lt;circle id="Knob1_7_" fill="url(#Knob1_1_)" stroke="#5491CF" stroke-width="0.5" cx="14.148" cy="31.25" r="0.292"/&gt;
	&lt;path id="path5135_10_" fill="#D54A30" stroke="#B51A19" stroke-width="0.5" d="M13.722,27.615c0,0-0.926,1.027-1.041,3.271
		c-0.115,2.243,0,2.243,0,2.243h3.273c0,0,0.115,0.031-0.078-2.185c-0.199-2.301-1.193-3.334-1.193-3.334L13.722,27.615
		L13.722,27.615z"/&gt;
	&lt;path id="path5131_10_" fill="#D54A30" stroke="#B51A19" stroke-width="0.5" d="M14.163,24.344h0.063l1.276,2.002
		c0.258,0.477-0.604,0.898-0.729,1.273l-1.14-0.01c-0.121-0.379-1.13-0.685-0.738-1.291L14.163,24.344z"/&gt;
	&lt;polygon fill="#353535" stroke="#353535" stroke-width="0.5" stroke-linecap="round" stroke-linejoin="round" points="
		52.225,22.842 36.594,25.037 36.139,13.559 51.746,13.873 	"/&gt;
	
		&lt;linearGradient id="neck_x5F_white_2_" gradientUnits="userSpaceOnUse" x1="43.3594" y1="-3073.1235" x2="44.0888" y2="-3090.6387" gradientTransform="matrix(1 0 0 -1 0.3604 -3057.6113)"&gt;
		&lt;stop  offset="0.2711" style="stop-color:#FFAB4F"/&gt;
		&lt;stop  offset="1" style="stop-color:#FFD28F"/&gt;
	&lt;/linearGradient&gt;
	&lt;path id="neck_x5F_white_5_" fill="url(#neck_x5F_white_2_)" stroke="#FFAB4F" stroke-width="0.5" stroke-miterlimit="10" d="
		M39.525,18.898h9.096v10.115c-0.658,0.187-8.587,0.219-9.096,0.086V18.898z"/&gt;
	
		&lt;linearGradient id="SVGID_2_" gradientUnits="userSpaceOnUse" x1="42.8584" y1="-3069.5903" x2="43.4789" y2="-3084.491" gradientTransform="matrix(1 0 0 -1 0.3604 -3057.6113)"&gt;
		&lt;stop  offset="0.2711" style="stop-color:#FFAB4F"/&gt;
		&lt;stop  offset="1" style="stop-color:#FFD28F"/&gt;
	&lt;/linearGradient&gt;
	&lt;path fill="url(#SVGID_2_)" stroke="#ED9135" stroke-width="0.5" stroke-miterlimit="10" d="M54.652,25.611
		c-2.197-2.196-5.477-2.94-6.031-3.055v-3.658h-9.096c0,0,0.021,3.453,0,3.436c0,0-3.437,0.499-6.152,3.216
		c-2.796,2.796-3.234,5.835-3.234,5.835c0,0.971,0.786,1.746,1.762,1.746h24.254c0.976,0,1.763-0.777,1.763-1.746
		C57.916,31.384,56.994,27.953,54.652,25.611z"/&gt;
	
		&lt;radialGradient id="face_x5F_white_2_" cx="43.4795" cy="-3070.4746" r="11.7123" fx="41.1947" fy="-3071.7195" gradientTransform="matrix(1 0 0 -1 0.3604 -3057.6113)" gradientUnits="userSpaceOnUse"&gt;
		&lt;stop  offset="0" style="stop-color:#FFD28F"/&gt;
		&lt;stop  offset="1" style="stop-color:#FFAB4F"/&gt;
	&lt;/radialGradient&gt;
	&lt;path id="face_x5F_white_5_" fill="url(#face_x5F_white_2_)" stroke="#ED9135" stroke-width="0.5" stroke-miterlimit="10" d="
		M51.727,11.679c0.043,5.1-3.369,9.26-7.625,9.293c-4.25,0.033-7.731-4.074-7.774-9.173c-0.041-5.1,3.37-9.26,7.623-9.294
		C48.201,2.473,51.684,6.579,51.727,11.679z"/&gt;
	
		&lt;linearGradient id="face_highlight_2_" gradientUnits="userSpaceOnUse" x1="7230.1748" y1="14261.8359" x2="7241.9893" y2="14308.5596" gradientTransform="matrix(0.275 0 0 0.2733 -1945.4338 -3893.9907)"&gt;
		&lt;stop  offset="0" style="stop-color:#FFFFFF;stop-opacity:0.24"/&gt;
		&lt;stop  offset="1" style="stop-color:#FFFFFF;stop-opacity:0.16"/&gt;
	&lt;/linearGradient&gt;
	&lt;path id="face_highlight_5_" fill="url(#face_highlight_2_)" d="M44.096,2.813c-3.018,0.023-5.373,2.247-6.394,5.193
		c-0.332,0.959-0.147,2.021,0.489,2.814c1.365,1.699,2.865,3.141,4.73,4.044c1.568,0.759,3.768,1.192,5.946,0.623
		c1.137-0.296,1.993-1.229,2.188-2.383c0.094-0.547,0.146-1.145,0.141-1.776C51.158,6.622,48.252,2.78,44.096,2.813z"/&gt;
	&lt;path fill="#5C5C5C" stroke="#353535" stroke-width="0.5" stroke-linecap="round" stroke-linejoin="round" d="M38.688,21.917
		c-0.207-1.509-0.308-2.506-0.396-3.933c-0.287-4.673,1.442-8.859,1.442-8.859l0.44-1.039l0.47,1.209l0.938-2.478l-0.023,2.276
		l0.654-0.374l0.352-0.827L42.745,9l0.526-0.494l1.065-0.364L44.809,8.5l0.238-1.188l0.417,1.277l0.563-0.513l0.84-0.106L47.4,8.656
		l-0.121-2.123l0.941,1.984L48.693,8.5c0,0,3.014,4.974,1.875,14.213c1.076,0.381,2.24,1.344,3.438,2.324
		c0.001-0.001,0.007-0.006,0.007-0.006L51.943,9.69c-0.517-3.253-2.68-8.39-7.69-8.366c-11.789-0.04-7.853,19.704-9.894,23.343
		c-0.004,0.007-0.006,0.013-0.01,0.021C36.034,23.363,37.714,22.173,38.688,21.917z"/&gt;
	
		&lt;radialGradient id="body_1_" cx="77.0439" cy="3984.6543" r="16.4227" gradientTransform="matrix(0.9852 0 0 0.9852 -38.3758 -3898.4966)" gradientUnits="userSpaceOnUse"&gt;
		&lt;stop  offset="0" style="stop-color:#FFC373"/&gt;
		&lt;stop  offset="1" style="stop-color:#FFB448"/&gt;
	&lt;/radialGradient&gt;
	&lt;path id="body_21_" fill="url(#body_1_)" stroke="#ED8D00" stroke-width="0.5" d="M30.139,31.384c0,0.97,0.786,1.747,1.762,1.747
		h24.254c0.976,0,1.763-0.779,1.763-1.747c0,0-0.922-3.431-3.265-5.771c-2.407-2.406-4.121-2.572-4.121-2.572
		c-0.723,3.49-4.276,4.393-6.504,4.393s-5.66-1.32-5.971-4.72c0,0-2.279,0.601-4.684,2.837
		C30.577,28.346,30.139,31.384,30.139,31.384z"/&gt;
&lt;/g&gt;
&lt;/svg&gt;
</y:Resource>
      <y:Resource id="2">&lt;?xml version="1.0" encoding="utf-8"?&gt;
&lt;svg version="1.1" id="Ebene_1" xmlns="http://www.w3.org/2000/svg" xmlns:xlink="http://www.w3.org/1999/xlink" x="0px" y="0px"
	 width="59px" height="59px" viewBox="0 0 59 59" enable-background="new 0 0 59 59" xml:space="preserve"&gt;
&lt;g&gt;
	
		&lt;linearGradient id="neck_x5F_white_1_" gradientUnits="userSpaceOnUse" x1="13.6323" y1="-1502.7422" x2="14.3617" y2="-1520.2559" gradientTransform="matrix(1 0 0 -1 0.2002 -1487.2285)"&gt;
		&lt;stop  offset="0.2711" style="stop-color:#FFAB4F"/&gt;
		&lt;stop  offset="1" style="stop-color:#FFD28F"/&gt;
	&lt;/linearGradient&gt;
	&lt;path id="neck_x5F_white_19_" fill="url(#neck_x5F_white_1_)" stroke="#FFAB4F" stroke-width="0.5" stroke-miterlimit="10" d="
		M9.639,18.899h9.093v10.115c-0.656,0.186-8.586,0.218-9.093,0.086V18.899z"/&gt;
	
		&lt;linearGradient id="SVGID_1_" gradientUnits="userSpaceOnUse" x1="13.1294" y1="-1499.207" x2="13.75" y2="-1514.1072" gradientTransform="matrix(1 0 0 -1 0.2002 -1487.2285)"&gt;
		&lt;stop  offset="0.2711" style="stop-color:#FFAB4F"/&gt;
		&lt;stop  offset="1" style="stop-color:#FFD28F"/&gt;
	&lt;/linearGradient&gt;
	&lt;path fill="url(#SVGID_1_)" stroke="#ED9135" stroke-width="0.5" stroke-miterlimit="10" d="M24.766,25.612
		c-2.199-2.197-5.477-2.941-6.033-3.055v-3.658H9.639c0,0,0.019,3.452,0,3.435c0,0-3.437,0.499-6.154,3.216
		c-2.796,2.796-3.235,5.835-3.235,5.835c0,0.971,0.788,1.746,1.762,1.746h24.255c0.974,0,1.761-0.777,1.761-1.746
		C28.027,31.384,27.105,27.953,24.766,25.612z"/&gt;
	
		&lt;radialGradient id="face_x5F_white_1_" cx="13.7515" cy="-1500.0908" r="11.7123" fx="11.4666" fy="-1501.3357" gradientTransform="matrix(1 0 0 -1 0.2002 -1487.2285)" gradientUnits="userSpaceOnUse"&gt;
		&lt;stop  offset="0" style="stop-color:#FFD28F"/&gt;
		&lt;stop  offset="1" style="stop-color:#FFAB4F"/&gt;
	&lt;/radialGradient&gt;
	&lt;path id="face_x5F_white_19_" fill="url(#face_x5F_white_1_)" stroke="#ED9135" stroke-width="0.5" stroke-miterlimit="10" d="
		M21.838,11.679c0.043,5.1-3.369,9.26-7.623,9.293C9.964,21.006,6.483,16.899,6.44,11.8c-0.042-5.1,3.37-9.261,7.622-9.294
		C18.314,2.473,21.795,6.579,21.838,11.679z"/&gt;
	
		&lt;linearGradient id="face_highlight_1_" gradientUnits="userSpaceOnUse" x1="4300.0391" y1="8522.0703" x2="4311.8545" y2="8568.7988" gradientTransform="matrix(0.275 0 0 0.2733 -1169.7629 -2324.9595)"&gt;
		&lt;stop  offset="0" style="stop-color:#FFFFFF;stop-opacity:0.24"/&gt;
		&lt;stop  offset="1" style="stop-color:#FFFFFF;stop-opacity:0.16"/&gt;
	&lt;/linearGradient&gt;
	&lt;path id="face_highlight_19_" fill="url(#face_highlight_1_)" d="M13.979,3.166c-3.018,0.023-5.374,2.247-6.394,5.193
		c-0.332,0.96-0.147,2.021,0.49,2.814c1.365,1.699,2.865,3.142,4.73,4.044c1.569,0.759,3.767,1.192,5.946,0.624
		c1.139-0.297,1.994-1.229,2.188-2.383c0.092-0.548,0.146-1.145,0.143-1.777C21.041,6.977,18.137,3.134,13.979,3.166z"/&gt;
	
		&lt;path id="Hair_Female_1_Black_9_" fill="#4B4B4B" stroke="#000000" stroke-width="0.5" stroke-linecap="round" stroke-linejoin="round" d="
		M14.187,0.25c-5.418,0-10.052,3.624-9.61,12.813c0.282,3.281,2.931,6.021,4.683,6.766C7.795,14.344,9.107,7.317,8.967,7.064
		c-0.14-0.252,1.769,3.364,1.769,3.364l1.591-4.155c2.771,2.14,0.197,5.654,0.524,5.528c2.129-0.815,2.67-4.614,2.67-4.614
		s1.364,1.829,1.35,2.752c-0.025,1.781,1.098-3.033,1.098-3.033l0.514,1.016c3.363,4.911,1.842,8.104,0.826,11.391
		c7.834-0.352,6.146-5.24,4.83-9.203C21.795,3.046,19.604,0.25,14.187,0.25z"/&gt;
	
		&lt;linearGradient id="body_1_" gradientUnits="userSpaceOnUse" x1="53.4854" y1="2393.7295" x2="21.2897" y2="2393.7295" gradientTransform="matrix(0.9852 0 0 0.9852 -22.6981 -2330.2188)"&gt;
		&lt;stop  offset="0" style="stop-color:#49AD33"/&gt;
		&lt;stop  offset="1" style="stop-color:#C2DA92"/&gt;
	&lt;/linearGradient&gt;
	&lt;path id="body_63_" fill="url(#body_1_)" stroke="#008D33" stroke-width="0.5" d="M0.25,31.384c0,0.97,0.788,1.747,1.762,1.747
		h24.255c0.974,0,1.761-0.779,1.761-1.747c0,0-0.922-3.431-3.262-5.771c-2.408-2.406-4.123-2.572-4.123-2.572
		c-0.723,3.491-4.277,4.393-6.503,4.393c-2.227,0-5.75-0.994-6.06-4.393c0,0-1.877-0.207-4.594,2.51
		C0.689,28.345,0.25,31.384,0.25,31.384z"/&gt;
	
		&lt;linearGradient id="neck_x5F_white_3_" gradientUnits="userSpaceOnUse" x1="43.8525" y1="-1502.7417" x2="44.5819" y2="-1520.2552" gradientTransform="matrix(1 0 0 -1 0.2002 -1487.2285)"&gt;
		&lt;stop  offset="0.2711" style="stop-color:#FFAB4F"/&gt;
		&lt;stop  offset="1" style="stop-color:#FFD28F"/&gt;
	&lt;/linearGradient&gt;
	&lt;path id="neck_x5F_white_17_" fill="url(#neck_x5F_white_3_)" stroke="#FFAB4F" stroke-width="0.5" stroke-miterlimit="10" d="
		M39.859,18.899h9.094v10.115c-0.656,0.186-8.586,0.218-9.094,0.086V18.899z"/&gt;
	
		&lt;linearGradient id="SVGID_2_" gradientUnits="userSpaceOnUse" x1="43.3506" y1="-1499.2075" x2="43.9712" y2="-1514.1077" gradientTransform="matrix(1 0 0 -1 0.2002 -1487.2285)"&gt;
		&lt;stop  offset="0.2711" style="stop-color:#FFAB4F"/&gt;
		&lt;stop  offset="1" style="stop-color:#FFD28F"/&gt;
	&lt;/linearGradient&gt;
	&lt;path fill="url(#SVGID_2_)" stroke="#ED9135" stroke-width="0.5" stroke-miterlimit="10" d="M54.986,25.612
		c-2.199-2.197-5.478-2.941-6.033-3.055v-3.658h-9.094c0,0,0.02,3.452,0,3.435c0,0-3.438,0.499-6.153,3.216
		c-2.796,2.796-3.235,5.835-3.235,5.835c0,0.971,0.787,1.746,1.762,1.746h24.256c0.974,0,1.761-0.777,1.761-1.746
		C58.248,31.384,57.326,27.953,54.986,25.612z"/&gt;
	
		&lt;radialGradient id="face_x5F_white_3_" cx="43.9727" cy="-1500.0908" r="11.7111" fx="41.6881" fy="-1501.3356" gradientTransform="matrix(1 0 0 -1 0.2002 -1487.2285)" gradientUnits="userSpaceOnUse"&gt;
		&lt;stop  offset="0" style="stop-color:#FFD28F"/&gt;
		&lt;stop  offset="1" style="stop-color:#FFAB4F"/&gt;
	&lt;/radialGradient&gt;
	&lt;path id="face_x5F_white_17_" fill="url(#face_x5F_white_3_)" stroke="#ED9135" stroke-width="0.5" stroke-miterlimit="10" d="
		M52.059,11.679c0.043,5.1-3.369,9.26-7.623,9.293c-4.25,0.034-7.731-4.073-7.774-9.172c-0.042-5.1,3.368-9.261,7.622-9.294
		C48.536,2.473,52.016,6.579,52.059,11.679z"/&gt;
	
		&lt;linearGradient id="face_highlight_3_" gradientUnits="userSpaceOnUse" x1="4409.9326" y1="8522.0703" x2="4421.7476" y2="8568.7969" gradientTransform="matrix(0.275 0 0 0.2733 -1169.7629 -2324.9595)"&gt;
		&lt;stop  offset="0" style="stop-color:#FFFFFF;stop-opacity:0.24"/&gt;
		&lt;stop  offset="1" style="stop-color:#FFFFFF;stop-opacity:0.16"/&gt;
	&lt;/linearGradient&gt;
	&lt;path id="face_highlight_17_" fill="url(#face_highlight_3_)" d="M44.2,3.166c-3.019,0.023-5.374,2.247-6.394,5.193
		c-0.332,0.96-0.147,2.021,0.489,2.814c1.364,1.699,2.864,3.142,4.729,4.044c1.568,0.759,3.768,1.192,5.945,0.624
		c1.139-0.297,1.994-1.229,2.188-2.383c0.092-0.548,0.146-1.145,0.143-1.777C51.262,6.977,48.357,3.134,44.2,3.166z"/&gt;
	
		&lt;path id="hair_x5F_gray_17_" fill="#ECECEC" stroke="#9B9B9B" stroke-width="0.5" stroke-linecap="round" stroke-linejoin="round" d="
		M40.359,6.625c0,0,2.66,3.625,7.5,1.875c1.365-0.281,4.529,0.518,4.529,0.518s-1.828-8.085-8.523-7.646
		c-8.943,0.69-7.615,11.467-7.615,11.467s1.384-0.342,2.518-2.401C39.255,9.553,40.359,6.625,40.359,6.625z"/&gt;
	
		&lt;radialGradient id="collar_x5F_body_2_" cx="37.6602" cy="-1515.813" r="16.2003" gradientTransform="matrix(1 0 0 -1 0.2002 -1487.2285)" gradientUnits="userSpaceOnUse"&gt;
		&lt;stop  offset="0" style="stop-color:#B0E8FF"/&gt;
		&lt;stop  offset="1" style="stop-color:#74AEEE"/&gt;
	&lt;/radialGradient&gt;
	&lt;path id="collar_x5F_body_8_" fill="url(#collar_x5F_body_2_)" stroke="#5491CF" stroke-width="0.5" d="M30.471,31.384
		c0,0.97,0.787,1.747,1.762,1.747h24.256c0.974,0,1.761-0.779,1.761-1.747c0,0-0.922-3.431-3.263-5.771
		c-2.407-2.406-5.623-3.072-5.623-3.072c-0.885,0.827-2.805,1.4-5.03,1.4s-4.146-0.573-5.031-1.4c0,0-2.878,0.293-5.595,3.01
		C30.91,28.345,30.471,31.384,30.471,31.384z"/&gt;
	
		&lt;radialGradient id="collar_x5F_r_2_" cx="45.8311" cy="-1510.8745" r="4.6401" gradientTransform="matrix(1 0 0 -1 0.2002 -1487.2285)" gradientUnits="userSpaceOnUse"&gt;
		&lt;stop  offset="0" style="stop-color:#80CCFF"/&gt;
		&lt;stop  offset="1" style="stop-color:#74AEEE"/&gt;
	&lt;/radialGradient&gt;
	&lt;path id="collar_x5F_r_8_" fill="url(#collar_x5F_r_2_)" stroke="#5491CF" stroke-width="0.5" d="M49.301,20.69
		c0,0-0.287,1.185-1.506,2.221c-1.055,0.897-2.893,1.036-2.893,1.036l1.986,3.108c0,0,1.479-0.818,2.504-1.924
		c0.961-1.036,0.686-2.74,0.686-2.74L49.301,20.69z"/&gt;
	
		&lt;radialGradient id="collar_x5F_l_2_" cx="39.6494" cy="-1510.896" r="4.6426" gradientTransform="matrix(1 0 0 -1 0.2002 -1487.2285)" gradientUnits="userSpaceOnUse"&gt;
		&lt;stop  offset="0" style="stop-color:#80CCFF"/&gt;
		&lt;stop  offset="1" style="stop-color:#74AEEE"/&gt;
	&lt;/radialGradient&gt;
	&lt;path id="collar_x5F_l_8_" fill="url(#collar_x5F_l_2_)" stroke="#5491CF" stroke-width="0.5" d="M39.536,20.711
		c0,0,0.288,1.185,1.506,2.221c1.056,0.896,2.894,1.036,2.894,1.036l-1.987,3.108c0,0-1.479-0.818-2.505-1.925
		c-0.961-1.036-0.685-2.74-0.685-2.74L39.536,20.711z"/&gt;
	
		&lt;radialGradient id="Knob2_2_" cx="44.0645" cy="-742.6421" r="0.4846" gradientTransform="matrix(1 0 0 -1 0.1201 -714.5371)" gradientUnits="userSpaceOnUse"&gt;
		&lt;stop  offset="0" style="stop-color:#80CCFF"/&gt;
		&lt;stop  offset="1" style="stop-color:#74AEEE"/&gt;
	&lt;/radialGradient&gt;
	&lt;circle id="Knob2_8_" fill="url(#Knob2_2_)" stroke="#5491CF" stroke-width="0.5" cx="44.35" cy="28.127" r="0.292"/&gt;
	
		&lt;radialGradient id="Knob1_2_" cx="44.083" cy="-745.7642" r="0.4847" gradientTransform="matrix(1 0 0 -1 0.1201 -714.5371)" gradientUnits="userSpaceOnUse"&gt;
		&lt;stop  offset="0" style="stop-color:#80CCFF"/&gt;
		&lt;stop  offset="1" style="stop-color:#74AEEE"/&gt;
	&lt;/radialGradient&gt;
	&lt;circle id="Knob1_8_" fill="url(#Knob1_2_)" stroke="#5491CF" stroke-width="0.5" cx="44.369" cy="31.25" r="0.292"/&gt;
	
		&lt;radialGradient id="jacket_x5F_body_1_" cx="36.7842" cy="-1515.3755" r="20.459" gradientTransform="matrix(1 0 0 -1 0.2002 -1487.2285)" gradientUnits="userSpaceOnUse"&gt;
		&lt;stop  offset="0" style="stop-color:#D0D0D0"/&gt;
		&lt;stop  offset="1" style="stop-color:#9B9B9B"/&gt;
	&lt;/radialGradient&gt;
	
		&lt;path id="jacket_x5F_body_8_" fill="url(#jacket_x5F_body_1_)" stroke="#4B4B4B" stroke-width="0.5" stroke-linecap="round" stroke-linejoin="round" d="
		M54.986,25.612c-2.217-2.217-5.111-2.955-5.557-3.059l-2.695,10.572h-4.43L39.686,22.84c-0.145-0.096-0.271-0.196-0.385-0.301
		c0,0-2.877,0.293-5.595,3.01c-2.796,2.796-3.233,5.835-3.233,5.835c0,0.97,0.786,1.747,1.76,1.747h24.256
		c0.975,0,1.761-0.779,1.761-1.747C58.248,31.384,57.326,27.953,54.986,25.612z"/&gt;
	
		&lt;polygon id="jacket_x5F_r_8_" fill="#9B9B9B" stroke="#4B4B4B" stroke-width="0.5" stroke-linecap="round" stroke-linejoin="round" points="
		49.688,21.038 51.305,23.187 50.615,27.835 48.914,28.25 49.547,29.563 47.509,33.126 46.734,33.126 	"/&gt;
	
		&lt;polygon id="jacket_x5F_l_8_" fill="#B2B2B2" stroke="#4B4B4B" stroke-width="0.5" stroke-linecap="round" stroke-linejoin="round" points="
		39.354,21.038 37.734,23.187 38.426,27.835 40.127,28.25 39.493,29.563 41.531,33.126 42.307,33.126 	"/&gt;
	&lt;path id="path5135_8_" fill="#D54A30" stroke="#B51A19" stroke-width="0.5" d="M43.936,27.61c0,0-0.926,1.028-1.041,3.271
		c-0.115,2.244,0,2.244,0,2.244h3.273c0,0,0.115,0.031-0.077-2.182c-0.2-2.302-1.194-3.334-1.194-3.334L43.936,27.61L43.936,27.61z"
		/&gt;
	&lt;path id="path5131_8_" fill="#D54A30" stroke="#B51A19" stroke-width="0.5" d="M44.377,24.34h0.063l1.275,2.001
		c0.258,0.477-0.604,0.898-0.729,1.274l-1.139-0.008c-0.121-0.38-1.129-0.683-0.738-1.292L44.377,24.34z"/&gt;
	
		&lt;linearGradient id="neck_x5F_white_4_" gradientUnits="userSpaceOnUse" x1="43.6328" y1="-1527.7417" x2="44.3621" y2="-1545.2545" gradientTransform="matrix(1 0 0 -1 0.2002 -1487.2285)"&gt;
		&lt;stop  offset="0.2711" style="stop-color:#FFAB4F"/&gt;
		&lt;stop  offset="1" style="stop-color:#FFD28F"/&gt;
	&lt;/linearGradient&gt;
	&lt;path id="neck_x5F_white_11_" fill="url(#neck_x5F_white_4_)" stroke="#FFAB4F" stroke-width="0.5" stroke-miterlimit="10" d="
		M39.639,43.898h9.094v10.115c-0.655,0.187-8.586,0.219-9.094,0.086V43.898z"/&gt;
	
		&lt;linearGradient id="SVGID_3_" gradientUnits="userSpaceOnUse" x1="43.1309" y1="-1524.2065" x2="43.7515" y2="-1539.1072" gradientTransform="matrix(1 0 0 -1 0.2002 -1487.2285)"&gt;
		&lt;stop  offset="0.2711" style="stop-color:#FFAB4F"/&gt;
		&lt;stop  offset="1" style="stop-color:#FFD28F"/&gt;
	&lt;/linearGradient&gt;
	&lt;path fill="url(#SVGID_3_)" stroke="#ED9135" stroke-width="0.5" stroke-miterlimit="10" d="M54.766,50.611
		c-2.199-2.196-5.477-2.94-6.033-3.055v-3.658h-9.094c0,0,0.021,3.453,0,3.436c0,0-3.437,0.499-6.152,3.216
		c-2.797,2.796-3.235,5.835-3.235,5.835c0,0.971,0.787,1.746,1.763,1.746h24.254c0.975,0,1.762-0.777,1.762-1.746
		C58.027,56.384,57.105,52.953,54.766,50.611z"/&gt;
	
		&lt;radialGradient id="face_x5F_white_4_" cx="43.752" cy="-1525.0908" r="11.7114" fx="41.4673" fy="-1526.3356" gradientTransform="matrix(1 0 0 -1 0.2002 -1487.2285)" gradientUnits="userSpaceOnUse"&gt;
		&lt;stop  offset="0" style="stop-color:#FFD28F"/&gt;
		&lt;stop  offset="1" style="stop-color:#FFAB4F"/&gt;
	&lt;/radialGradient&gt;
	&lt;path id="face_x5F_white_11_" fill="url(#face_x5F_white_4_)" stroke="#ED9135" stroke-width="0.5" stroke-miterlimit="10" d="
		M51.838,36.68c0.043,5.1-3.369,9.26-7.623,9.293c-4.251,0.033-7.732-4.074-7.775-9.173c-0.041-5.1,3.369-9.261,7.623-9.294
		C48.314,27.473,51.795,31.579,51.838,36.68z"/&gt;
	
		&lt;linearGradient id="face_highlight_4_" gradientUnits="userSpaceOnUse" x1="4409.1299" y1="8613.5469" x2="4420.9448" y2="8660.2725" gradientTransform="matrix(0.275 0 0 0.2733 -1169.7629 -2324.9595)"&gt;
		&lt;stop  offset="0" style="stop-color:#FFFFFF;stop-opacity:0.24"/&gt;
		&lt;stop  offset="1" style="stop-color:#FFFFFF;stop-opacity:0.16"/&gt;
	&lt;/linearGradient&gt;
	&lt;path id="face_highlight_11_" fill="url(#face_highlight_4_)" d="M43.979,28.166c-3.018,0.023-5.373,2.247-6.394,5.193
		c-0.332,0.959-0.147,2.021,0.49,2.813c1.364,1.699,2.864,3.142,4.729,4.044c1.568,0.76,3.768,1.192,5.945,0.624
		c1.139-0.297,1.994-1.229,2.188-2.383c0.092-0.548,0.146-1.146,0.144-1.776C51.041,31.977,48.137,28.134,43.979,28.166z"/&gt;
	&lt;path fill="#CC9869" stroke="#99724F" stroke-width="0.5" stroke-linecap="round" stroke-linejoin="round" d="M46.107,29.969
		c0,0,2.845,1.375,3.845,4.062c1.052,2.826,2.062,4.117,2.095,4c0.938-3.395,0.531-10.718-5.086-10.792
		c-10.229-3.832-12.79,5.98-11.947,9.824c0.539,2.457,1.117,3.344,1.971,4.041C36.982,41.104,37.514,33.781,46.107,29.969z"/&gt;
	
		&lt;linearGradient id="body_2_" gradientUnits="userSpaceOnUse" x1="83.9365" y1="2419.1064" x2="51.7404" y2="2419.1064" gradientTransform="matrix(0.9852 0 0 0.9852 -22.6981 -2330.2188)"&gt;
		&lt;stop  offset="0" style="stop-color:#49AD33"/&gt;
		&lt;stop  offset="1" style="stop-color:#C2DA92"/&gt;
	&lt;/linearGradient&gt;
	&lt;path id="body_35_" fill="url(#body_2_)" stroke="#008D33" stroke-width="0.5" d="M30.25,56.384c0,0.97,0.787,1.747,1.762,1.747
		h24.256c0.974,0,1.76-0.779,1.76-1.747c0,0-0.922-3.431-3.262-5.771c-2.408-2.406-4.123-2.572-4.123-2.572
		c-0.723,3.49-4.276,4.393-6.504,4.393c-2.227,0-5.75-0.994-6.059-4.393c0,0-1.878-0.207-4.596,2.51
		C30.689,53.346,30.25,56.384,30.25,56.384z"/&gt;
	
		&lt;radialGradient id="neck_x5F_white_5_" cx="14.0952" cy="-1534.9302" r="5.7236" fx="12.9786" fy="-1535.5386" gradientTransform="matrix(1 0 0 -1 0.2002 -1487.2285)" gradientUnits="userSpaceOnUse"&gt;
		&lt;stop  offset="0" style="stop-color:#B38E5D"/&gt;
		&lt;stop  offset="1" style="stop-color:#805126"/&gt;
	&lt;/radialGradient&gt;
	&lt;path id="neck_x5F_white_2_" fill="url(#neck_x5F_white_5_)" stroke="#5B453B" stroke-width="0.5" stroke-miterlimit="10" d="
		M9.859,43.898h9.094v6.615c-0.656,0.187-8.586,0.219-9.094,0.086V43.898z"/&gt;
	
		&lt;radialGradient id="SVGID_4_" cx="13.8213" cy="-1539.1084" r="15.5272" fx="10.7923" fy="-1540.7589" gradientTransform="matrix(1 0 0 -1 0.2002 -1487.2285)" gradientUnits="userSpaceOnUse"&gt;
		&lt;stop  offset="0" style="stop-color:#B38E5D"/&gt;
		&lt;stop  offset="1" style="stop-color:#805126"/&gt;
	&lt;/radialGradient&gt;
	&lt;path fill="url(#SVGID_4_)" stroke="#5B453B" stroke-width="0.5" stroke-miterlimit="10" d="M24.986,50.611
		c-2.199-2.196-5.477-2.94-6.033-3.055v-3.658H9.859c0,0,0.02,3.453,0,3.436c0,0-3.437,0.499-6.153,3.216
		c-2.796,2.796-3.235,5.835-3.235,5.835c0,0.971,0.787,1.746,1.762,1.746h24.255c0.974,0,1.761-0.777,1.761-1.746
		C28.248,56.384,27.326,52.953,24.986,50.611z"/&gt;
	
		&lt;radialGradient id="face_x5F_white_5_" cx="13.9722" cy="-1525.0908" r="11.7123" fx="11.6873" fy="-1526.3357" gradientTransform="matrix(1 0 0 -1 0.2002 -1487.2285)" gradientUnits="userSpaceOnUse"&gt;
		&lt;stop  offset="0" style="stop-color:#B38E5D"/&gt;
		&lt;stop  offset="1" style="stop-color:#805126"/&gt;
	&lt;/radialGradient&gt;
	&lt;path id="face_x5F_white_2_" fill="url(#face_x5F_white_5_)" stroke="#5B453B" stroke-width="0.5" stroke-miterlimit="10" d="
		M22.059,36.68c0.043,5.1-3.369,9.26-7.623,9.293c-4.251,0.033-7.732-4.074-7.775-9.173c-0.042-5.1,3.369-9.261,7.622-9.294
		C18.536,27.473,22.016,31.579,22.059,36.68z"/&gt;
	
		&lt;linearGradient id="face_highlight_5_" gradientUnits="userSpaceOnUse" x1="4300.8428" y1="8613.5449" x2="4312.6582" y2="8660.2734" gradientTransform="matrix(0.275 0 0 0.2733 -1169.7629 -2324.9595)"&gt;
		&lt;stop  offset="0" style="stop-color:#FFFFFF;stop-opacity:0.42"/&gt;
		&lt;stop  offset="1" style="stop-color:#FFFFFF;stop-opacity:0.12"/&gt;
	&lt;/linearGradient&gt;
	&lt;path id="face_highlight_2_" fill="url(#face_highlight_5_)" d="M14.2,28.166c-3.018,0.023-5.374,2.247-6.394,5.193
		c-0.332,0.959-0.147,2.021,0.49,2.813c1.364,1.699,2.864,3.142,4.73,4.044c1.568,0.76,3.767,1.192,5.945,0.624
		c1.139-0.297,1.994-1.229,2.188-2.383c0.092-0.548,0.146-1.146,0.143-1.776C21.262,31.977,18.357,28.134,14.2,28.166z"/&gt;
	
		&lt;path id="Hair_Young_Black_1_" fill="#4B4B4B" stroke="#000000" stroke-width="0.5" stroke-linecap="round" stroke-linejoin="round" d="
		M10.359,31.625c1.709,2.166,4.667,3.459,4.667,3.459l-0.708-1.75c0,0,3.547,2.346,4.041,2.166c0.484-0.1-0.541-1.902-0.541-1.902
		s1.568,0.896,2.428,1.983c0.9,1.14,2.143,1.752,2.143,1.752s1.346-10.974-8.523-10.961C4.359,26.354,6.25,38.839,6.25,38.839
		L7.568,33.5c0,0,0.457,2.879,0.699,2.438C9.151,32.605,9.651,30.75,10.359,31.625z"/&gt;
	
		&lt;radialGradient id="collar_x5F_body_3_" cx="7.6602" cy="-1540.813" r="16.2003" gradientTransform="matrix(1 0 0 -1 0.2002 -1487.2285)" gradientUnits="userSpaceOnUse"&gt;
		&lt;stop  offset="0" style="stop-color:#B0E8FF"/&gt;
		&lt;stop  offset="1" style="stop-color:#74AEEE"/&gt;
	&lt;/radialGradient&gt;
	&lt;path id="collar_x5F_body_1_" fill="url(#collar_x5F_body_3_)" stroke="#5491CF" stroke-width="0.5" d="M0.471,56.384
		c0,0.97,0.787,1.747,1.762,1.747h24.255c0.974,0,1.761-0.779,1.761-1.747c0,0-0.922-3.431-3.262-5.771
		c-2.408-2.406-5.623-3.072-5.623-3.072c-0.885,0.827-2.805,1.4-5.031,1.4s-4.146-0.573-5.031-1.4c0,0-2.878,0.293-5.595,3.01
		C0.91,53.346,0.471,56.384,0.471,56.384z"/&gt;
	
		&lt;radialGradient id="collar_x5F_r_3_" cx="15.8306" cy="-1535.874" r="4.6412" gradientTransform="matrix(1 0 0 -1 0.2002 -1487.2285)" gradientUnits="userSpaceOnUse"&gt;
		&lt;stop  offset="0" style="stop-color:#80CCFF"/&gt;
		&lt;stop  offset="1" style="stop-color:#74AEEE"/&gt;
	&lt;/radialGradient&gt;
	&lt;path id="collar_x5F_r_1_" fill="url(#collar_x5F_r_3_)" stroke="#5491CF" stroke-width="0.5" d="M19.301,45.689
		c0,0-0.287,1.186-1.506,2.222c-1.055,0.897-2.893,1.036-2.893,1.036l1.986,3.107c0,0,1.479-0.818,2.504-1.924
		c0.961-1.035,0.686-2.74,0.686-2.74L19.301,45.689z"/&gt;
	
		&lt;radialGradient id="collar_x5F_l_3_" cx="9.6494" cy="-1535.896" r="4.6422" gradientTransform="matrix(1 0 0 -1 0.2002 -1487.2285)" gradientUnits="userSpaceOnUse"&gt;
		&lt;stop  offset="0" style="stop-color:#80CCFF"/&gt;
		&lt;stop  offset="1" style="stop-color:#74AEEE"/&gt;
	&lt;/radialGradient&gt;
	&lt;path id="collar_x5F_l_1_" fill="url(#collar_x5F_l_3_)" stroke="#5491CF" stroke-width="0.5" d="M9.536,45.711
		c0,0,0.288,1.186,1.506,2.221c1.055,0.896,2.893,1.037,2.893,1.037l-1.987,3.107c0,0-1.479-0.818-2.504-1.926
		c-0.961-1.035-0.685-2.739-0.685-2.739L9.536,45.711z"/&gt;
	
		&lt;radialGradient id="Knob2_3_" cx="14.0645" cy="-767.6421" r="0.4842" gradientTransform="matrix(1 0 0 -1 0.1201 -714.5371)" gradientUnits="userSpaceOnUse"&gt;
		&lt;stop  offset="0" style="stop-color:#80CCFF"/&gt;
		&lt;stop  offset="1" style="stop-color:#74AEEE"/&gt;
	&lt;/radialGradient&gt;
	&lt;circle id="Knob2_1_" fill="url(#Knob2_3_)" stroke="#5491CF" stroke-width="0.5" cx="14.35" cy="53.127" r="0.292"/&gt;
	
		&lt;radialGradient id="Knob1_3_" cx="14.0835" cy="-770.7642" r="0.4844" gradientTransform="matrix(1 0 0 -1 0.1201 -714.5371)" gradientUnits="userSpaceOnUse"&gt;
		&lt;stop  offset="0" style="stop-color:#80CCFF"/&gt;
		&lt;stop  offset="1" style="stop-color:#74AEEE"/&gt;
	&lt;/radialGradient&gt;
	&lt;circle id="Knob1_1_" fill="url(#Knob1_3_)" stroke="#5491CF" stroke-width="0.5" cx="14.369" cy="56.25" r="0.292"/&gt;
	&lt;path id="path5135_1_" fill="#D54A30" stroke="#B51A19" stroke-width="0.5" d="M13.935,52.609c0,0-0.925,1.029-1.04,3.271
		c-0.115,2.244,0,2.244,0,2.244h3.273c0,0,0.115,0.031-0.077-2.182c-0.2-2.303-1.194-3.334-1.194-3.334H13.935L13.935,52.609z"/&gt;
	&lt;path id="path5131_1_" fill="#D54A30" stroke="#B51A19" stroke-width="0.5" d="M14.377,49.34h0.062l1.276,2.001
		c0.258,0.478-0.604,0.897-0.728,1.274l-1.14-0.008c-0.121-0.381-1.128-0.684-0.738-1.293L14.377,49.34z"/&gt;
&lt;/g&gt;
&lt;/svg&gt;
</y:Resource>
    </y:Resources>
  </data>
</graphml>
